[{"idCuenta":1,"iban":"VG86 SWJW 0959 5922 4074 2023","balance":80086.67,"desCuenta":"Movies","idUsuario":1},
{"idCuenta":2,"iban":"TR10 0477 7RAN LQXD HKTT 10DJ WZ","balance":20933.27,"desCuenta":"Movies","idUsuario":2},
{"idCuenta":3,"iban":"SM50 W376 2826 3867 DDRY TOOB MAT","balance":64374.78,"desCuenta":"Kids","idUsuario":3},
{"idCuenta":4,"iban":"BR44 3143 6795 4366 5272 7870 193M N","balance":22425.71,"desCuenta":"Garden","idUsuario":4},
{"idCuenta":5,"iban":"RO10 YYUU 0G3Y 4NDZ 5TIW 7HQ0","balance":58171.32,"desCuenta":"Movies","idUsuario":5},
{"idCuenta":6,"iban":"FI39 8656 0424 1835 47","balance":7784.78,"desCuenta":"Grocery","idUsuario":6},
{"idCuenta":7,"iban":"GR25 4027 778C 39PH BQTZ 9EZZ 8JU","balance":50707.7,"desCuenta":"Garden","idUsuario":7},
{"idCuenta":8,"iban":"IL93 0136 2922 4849 3412 096","balance":87554.87,"desCuenta":"Industrial","idUsuario":8},
{"idCuenta":9,"iban":"RS54 7157 4761 0161 7428 36","balance":87844.1,"desCuenta":"Grocery","idUsuario":9},
{"idCuenta":10,"iban":"TN96 3060 2444 6250 2649 0544","balance":10752.04,"desCuenta":"Electronics","idUsuario":10},
{"idCuenta":11,"iban":"NO29 4130 2955 023","balance":88004.76,"desCuenta":"Industrial","idUsuario":11},
{"idCuenta":12,"iban":"ME04 8063 0768 9345 8352 87","balance":26461.71,"desCuenta":"Health","idUsuario":12},
{"idCuenta":13,"iban":"DK79 2015 2980 6877 60","balance":4133.01,"desCuenta":"Tools","idUsuario":13},
{"idCuenta":14,"iban":"FR13 1641 8591 96VD APLR 5SF8 G46","balance":60553.81,"desCuenta":"Shoes","idUsuario":14},
{"idCuenta":15,"iban":"AZ08 ZGTO PNOB HXVJ 4JN5 RHE7 JPQ5","balance":12167.14,"desCuenta":"Books","idUsuario":15},
{"idCuenta":16,"iban":"GE34 CX20 4423 8557 7716 53","balance":2867.21,"desCuenta":"Sports","idUsuario":1},
{"idCuenta":17,"iban":"FR16 8750 2386 0467 MPHY ZWTZ B60","balance":92742.96,"desCuenta":"Health","idUsuario":2},
{"idCuenta":18,"iban":"AL03 4694 0527 I46S M36U SI6V EMAQ","balance":25460.21,"desCuenta":"Garden","idUsuario":3},
{"idCuenta":19,"iban":"DK46 7574 1708 0819 98","balance":85996.2,"desCuenta":"Baby","idUsuario":4},
{"idCuenta":20,"iban":"FR76 3126 3423 81BG CSBR SLSS V39","balance":92698.61,"desCuenta":"Beauty","idUsuario":5},
{"idCuenta":21,"iban":"AD02 0726 3079 X7BQ C32T EDDA","balance":19279.05,"desCuenta":"Baby","idUsuario":6},
{"idCuenta":22,"iban":"GT17 FNSF TKUJ CHK1 CXDK 4HFT 6LJQ","balance":94432.32,"desCuenta":"Computers","idUsuario":7},
{"idCuenta":23,"iban":"IT85 J715 9286 620H EJS6 NCBQ KYJ","balance":11014.16,"desCuenta":"Tools","idUsuario":8},
{"idCuenta":24,"iban":"CR81 4516 6878 9144 7204 8","balance":17782.29,"desCuenta":"Automotive","idUsuario":8},
{"idCuenta":25,"iban":"FI68 4724 8090 9205 58","balance":15812.3,"desCuenta":"Sports","idUsuario":8},
{"idCuenta":26,"iban":"GR98 6306 084E U6ZZ QYRI 5WLF 4IG","balance":44919.45,"desCuenta":"Home","idUsuario":1},
{"idCuenta":27,"iban":"DO50 BETK 2375 5751 4602 5993 1410","balance":70453.28,"desCuenta":"Outdoors","idUsuario":1},
{"idCuenta":28,"iban":"KW14 UKCV SGNY BY0G H1QG 2DXM FLJ3 0X","balance":73180.43,"desCuenta":"Jewelery","idUsuario":2},
{"idCuenta":29,"iban":"NL69 IOZJ 2159 0431 71","balance":86393.11,"desCuenta":"Toys","idUsuario":2},
{"idCuenta":30,"iban":"AD26 6988 1046 NTK8 5ANC 99RD","balance":80675.19,"desCuenta":"Computers","idUsuario":3}]
