[{"idUsuario":1,"lastName":"Bute","firstName":"Ardis","email":"abute0@jugem.jp","password":"9k6KHyuv4"},
{"idUsuario":2,"lastName":"Scatchar","firstName":"Shelli","email":"sscatchar1@theglobeandmail.com","password":"eXCZLjRBe"},
{"idUsuario":3,"lastName":"Matejic","firstName":"Thurstan","email":"tmatejic2@slashdot.org","password":"HfBzmeKFj8"},
{"idUsuario":4,"lastName":"Gonning","firstName":"Cyril","email":"cgonning3@myspace.com","password":"Z2QW51M"},
{"idUsuario":5,"lastName":"Currall","firstName":"Hettie","email":"hcurrall4@youku.com","password":"BDnpYn"},
{"idUsuario":6,"lastName":"Moff","firstName":"Aloise","email":"amoff5@miibeian.gov.cn","password":"eX8kkSTx26U"},
{"idUsuario":7,"lastName":"Ambrogioni","firstName":"Gilda","email":"gambrogioni6@sciencedirect.com","password":"Sk3T39Ufaa"},
{"idUsuario":8,"lastName":"Shute","firstName":"Kort","email":"kshute7@mozilla.com","password":"TQGT2ZP"},
{"idUsuario":9,"lastName":"Battson","firstName":"Darius","email":"dbattson8@list-manage.com","password":"V1rpnWJZEQ"},
{"idUsuario":10,"lastName":"Bellenie","firstName":"Waverly","email":"wbellenie9@ehow.com","password":"DIroK9h"},
{"idUsuario":11,"lastName":"Prandi","firstName":"Dotty","email":"dprandia@ft.com","password":"LLzFXHxazQE"},
{"idUsuario":12,"lastName":"Pock","firstName":"Vergil","email":"vpockb@paginegialle.it","password":"G9rW9EV3"},
{"idUsuario":13,"lastName":"Bazelle","firstName":"Loy","email":"lbazellec@networksolutions.com","password":"HLQaztwk4Zn"},
{"idUsuario":14,"lastName":"Allatt","firstName":"Sholom","email":"sallattd@google.com.au","password":"4wAu7R"},
{"idUsuario":15,"lastName":"Esposita","firstName":"Sheryl","email":"sespositae@people.com.cn","password":"XHTl9DrF"}]
